Exploring the BRFSS data
…
sleepbuckets <-
brfss2013 %>% 
  group_by(sleptim1) %>% 
  filter(!(sleptim1 > 24)) %>%
  filter(!is.na(rfhlth_ordrd)) %>%
  summarise(count = n(),
  #avgrfhlth = mean (as.numeric(rfhlth_ordrd)))
  avghlth = mean (as.numeric(genhlth)))

## `summarise()` ungrouping output (override with `.groups` argument)

sleepbuckets

## # A tibble: 24 x 3
##    sleptim1  count avghlth
##       <int>  <int>   <dbl>
##  1        1    228    3.51
##  2        2   1063    3.74
##  3        3   3465    3.58
##  4        4  14194    3.34
##  5        5  33290    2.96
##  6        6 105880    2.64
##  7        7 142088    2.34
##  8        8 140498    2.46
##  9        9  23688    2.58
## 10       10  12030    3.01
## # ... with 14 more rows
…
unhealthysleepbuckets <-
brfss2013 %>% 
  group_by(sleptim1) %>% 
  filter(!(sleptim1 > 24)) %>%
  filter(genhlth_num <= 3 ) %>%  # only people reporting poor health
  summarise(count = n(), 
            avghealth= mean(as.numeric(genhlth_num), na.rm=TRUE))

## `summarise()` ungrouping output (override with `.groups` argument)

unhealthysleepbuckets

## # A tibble: 24 x 3
##    sleptim1  count avghealth
##       <int>  <int>     <dbl>
##  1        0      1      1   
##  2        1    107      2.30
##  3        2    406      2.40
##  4        3   1503      2.38
##  5        4   7572      2.38
##  6        5  22640      2.32
##  7        6  84363      2.22
##  8        7 125778      2.10
##  9        8 118337      2.12
## 10        9  18997      2.16
## # ... with 14 more rows
…
We compare sleep reported by healthy (in blue) and unhealthy (in red) respondents:

healthysleepbuckets <-
brfss2013 %>% 
  group_by(sleptim1) %>% 
  filter(!(sleptim1 > 24)) %>%
  filter(genhlth_num > 3 ) %>%
  summarise(count = n(), 
            avghealth= mean(as.numeric(genhlth_num), na.rm=TRUE))

## `summarise()` ungrouping output (override with `.groups` argument)

healthysleepbuckets

## # A tibble: 24 x 3
##    sleptim1 count avghealth
##       <int> <int>     <dbl>
##  1        1   121      4.59
##  2        2   657      4.57
##  3        3  1963      4.50
##  4        4  6622      4.44
##  5        5 10650      4.33
##  6        6 21517      4.27
##  7        7 16312      4.21
##  8        8 22161      4.25
##  9        9  4691      4.28
## 10       10  4116      4.36
## # ... with 14 more rows
…
Lets look at the average General Health of people grouped by the number of hours of sleep. We filter out the single person who reported getting 0 hours of sleep, as that is not a useful number of data points.

brfss2013 %>% 
  filter(!(is.na(genhlth)), !(sleptim1 > 24), !(sleptim1 ==0) ) %>%
  group_by(sleptim1) %>% 
  summarise(count = n(), MeanGenHealth = mean(as.numeric(genhlth)), 
            sd(as.numeric(genhlth)))

## `summarise()` ungrouping output (override with `.groups` argument)

## # A tibble: 24 x 4
##    sleptim1  count MeanGenHealth `sd(as.numeric(genhlth))`
##       <int>  <int>         <dbl>                     <dbl>
##  1        1    228          3.51                     1.33 
##  2        2   1063          3.74                     1.22 
##  3        3   3466          3.58                     1.22 
##  4        4  14194          3.34                     1.21 
##  5        5  33290          2.96                     1.15 
##  6        6 105880          2.64                     1.08 
##  7        7 142090          2.34                     0.978
##  8        8 140498          2.46                     1.06 
##  9        9  23688          2.58                     1.11 
## 10       10  12030          3.01                     1.19 
## # ... with 14 more rows
…
## `summarise()` ungrouping output (override with `.groups` argument)

sleephealthsumm2 

## # A tibble: 24 x 9
##    sleptim1  count MeanGenHealth        z Percentile    SD StandardError
##       <int>  <int>         <dbl>    <dbl>      <dbl> <dbl>         <dbl>
##  1        1    228          3.51  1.19e+0      0.884 1.33        0.0880 
##  2        2   1063          3.74  1.43e+0      0.923 1.22        0.0375 
##  3        3   3466          3.58  1.26e+0      0.897 1.22        0.0208 
##  4        4  14194          3.34  1.02e+0      0.845 1.21        0.0102 
##  5        5  33290          2.96  6.30e-1      0.736 1.15        0.00629
##  6        6 105880          2.64  3.02e-1      0.618 1.08        0.00331
##  7        7 142090          2.34 -2.50e-7      0.500 0.978       0.00260
##  8        8 140498          2.46  1.14e-1      0.545 1.06        0.00283
##  9        9  23688          2.58  2.41e-1      0.595 1.11        0.00718
## 10       10  12030          3.01  6.77e-1      0.751 1.19        0.0108 
## # ... with 14 more rows, and 2 more variables: LowerRange <dbl>,
## #   UpperRange <dbl>
…
## `summarise()` ungrouping output (override with `.groups` argument)

## # A tibble: 24 x 9
##    sleptim1  count MeanGenHealth        z Percentile    SD StandardError
##       <int>  <int>         <dbl>    <dbl>      <dbl> <dbl>         <dbl>
##  1        1    228          3.51  1.19e+0      0.884 1.33        0.0880 
##  2        2   1063          3.74  1.43e+0      0.923 1.22        0.0375 
##  3        3   3466          3.58  1.26e+0      0.897 1.22        0.0208 
##  4        4  14194          3.34  1.02e+0      0.845 1.21        0.0102 
##  5        5  33290          2.96  6.30e-1      0.736 1.15        0.00629
##  6        6 105880          2.64  3.02e-1      0.618 1.08        0.00331
##  7        7 142090          2.34 -2.50e-7      0.500 0.978       0.00260
##  8        8 140498          2.46  1.14e-1      0.545 1.06        0.00283
##  9        9  23688          2.58  2.41e-1      0.595 1.11        0.00718
## 10       10  12030          3.01  6.77e-1      0.751 1.19        0.0108 
## # ... with 14 more rows, and 2 more variables: LowerRange <dbl>,
## #   UpperRange <dbl>
…
## `summarise()` ungrouping output (override with `.groups` argument)

sleephealthsumm3 

## # A tibble: 24 x 9
##    sleptim1  count MeanGenHealth        z Percentile    SD StandardError
##       <int>  <int>         <dbl>    <dbl>      <dbl> <dbl>         <dbl>
##  1        1    228          3.51  1.19e+0      0.884 1.33        0.0880 
##  2        2   1063          3.74  1.43e+0      0.923 1.22        0.0375 
##  3        3   3466          3.58  1.26e+0      0.897 1.22        0.0208 
##  4        4  14194          3.34  1.02e+0      0.845 1.21        0.0102 
##  5        5  33290          2.96  6.30e-1      0.736 1.15        0.00629
##  6        6 105880          2.64  3.02e-1      0.618 1.08        0.00331
##  7        7 142090          2.34 -2.50e-7      0.500 0.978       0.00260
##  8        8 140498          2.46  1.14e-1      0.545 1.06        0.00283
##  9        9  23688          2.58  2.41e-1      0.595 1.11        0.00718
## 10       10  12030          3.01  6.77e-1      0.751 1.19        0.0108 
## # ... with 14 more rows, and 2 more variables: LowerRange <dbl>,
## #   UpperRange <dbl>
…
  brfss2013 %>%
  filter(!is.na(X_ageg5yr), !is.na(sleptim1), !is.na(genhlth)) %>%
  group_by(X_ageg5yr, genhlth) %>%
  summarise (count =n(), MeanSleep = mean(sleptim1, na.rm=TRUE))

## `summarise()` regrouping output by 'X_ageg5yr' (override with `.groups` argument)

## # A tibble: 65 x 4
## # Groups:   X_ageg5yr [13]
##    X_ageg5yr    genhlth   count MeanSleep
##    <fct>        <ord>     <int>     <dbl>
##  1 Age 18 to 24 Excellent  6854      7.26
##  2 Age 18 to 24 Very good 10202      7.14
##  3 Age 18 to 24 Good       7706      7.06
##  4 Age 18 to 24 Fair       1845      6.73
##  5 Age 18 to 24 Poor        298      6.63
##  6 Age 25 to 29 Excellent  5743      7.11
##  7 Age 25 to 29 Very good  8454      6.98
##  8 Age 25 to 29 Good       6463      6.84
##  9 Age 25 to 29 Fair       1725      6.50
## 10 Age 25 to 29 Poor        318      6.45
## # ... with 55 more rows

We find mean physical health for each combination (grouping) of age and sleep time (275 groups). The graph that results is unclear due to large number of groups that have few datapoints (ex: there are only 95 18-24 year old respondents reporting 13 or more hours of sleep). To remove this noise, we filter out rows that have a count less than 35.

sleep_GroupByAge_GroupBySleep <-
  brfss2013 %>%
  filter(!is.na(X_ageg5yr), !is.na(sleptim1), !is.na(genhlth)) %>%
  group_by(X_ageg5yr, sleptim1) %>%
  summarise (count =n(), MeanGenHealth = mean(as.numeric(genhlth), na.rm=TRUE))

## `summarise()` regrouping output by 'X_ageg5yr' (override with `.groups` argument)

sleep_GroupByAge_GroupBySleep

## # A tibble: 275 x 4
## # Groups:   X_ageg5yr [13]
##    X_ageg5yr    sleptim1 count MeanGenHealth
##    <fct>           <int> <int>         <dbl>
##  1 Age 18 to 24        1    18          2.83
##  2 Age 18 to 24        2    63          2.86
##  3 Age 18 to 24        3   171          2.65
##  4 Age 18 to 24        4   747          2.56
##  5 Age 18 to 24        5  2042          2.47
##  6 Age 18 to 24        6  5632          2.28
##  7 Age 18 to 24        7  7383          2.11
##  8 Age 18 to 24        8  7812          2.11
##  9 Age 18 to 24        9  1794          2.15
## 10 Age 18 to 24       10   854          2.23
## # ... with 265 more rows

sleep_GroupByAge_GroupBySleep_filtered <-
  sleep_GroupByAge_GroupBySleep %>%
  filter(count>35)
sleep_GroupByAge_GroupBySleep_filtered  

## # A tibble: 154 x 4
## # Groups:   X_ageg5yr [13]
##    X_ageg5yr    sleptim1 count MeanGenHealth
##    <fct>           <int> <int>         <dbl>
##  1 Age 18 to 24        2    63          2.86
##  2 Age 18 to 24        3   171          2.65
##  3 Age 18 to 24        4   747          2.56
##  4 Age 18 to 24        5  2042          2.47
##  5 Age 18 to 24        6  5632          2.28
##  6 Age 18 to 24        7  7383          2.11
##  7 Age 18 to 24        8  7812          2.11
##  8 Age 18 to 24        9  1794          2.15
##  9 Age 18 to 24       10   854          2.23
## 10 Age 18 to 24       11    70          2.4 
## # ... with 144 more rows

sleep_GroupByAge_GroupBySleep

## # A tibble: 275 x 4
## # Groups:   X_ageg5yr [13]
##    X_ageg5yr    sleptim1 count MeanGenHealth
##    <fct>           <int> <int>         <dbl>
##  1 Age 18 to 24        1    18          2.83
##  2 Age 18 to 24        2    63          2.86
##  3 Age 18 to 24        3   171          2.65
##  4 Age 18 to 24        4   747          2.56
##  5 Age 18 to 24        5  2042          2.47
##  6 Age 18 to 24        6  5632          2.28
##  7 Age 18 to 24        7  7383          2.11
##  8 Age 18 to 24        8  7812          2.11
##  9 Age 18 to 24        9  1794          2.15
## 10 Age 18 to 24       10   854          2.23
## # ... with 265 more rows
…
Lets try to correlate age and sleep to reported health.

sleep_GroupByAge_GroupByhealth <-
  brfss2013 %>%
  filter(!is.na(X_ageg5yr), !is.na(sleptim1), !is.na(genhlth)) %>%
  group_by(X_ageg5yr, genhlth) %>%
  summarise (count =n(), AverageSleep = mean(as.numeric(sleptim1), na.rm=TRUE))

## `summarise()` regrouping output by 'X_ageg5yr' (override with `.groups` argument)

sleep_GroupByAge_GroupByhealth

## # A tibble: 65 x 4
## # Groups:   X_ageg5yr [13]
##    X_ageg5yr    genhlth   count AverageSleep
##    <fct>        <ord>     <int>        <dbl>
##  1 Age 18 to 24 Excellent  6854         7.26
##  2 Age 18 to 24 Very good 10202         7.14
##  3 Age 18 to 24 Good       7706         7.06
##  4 Age 18 to 24 Fair       1845         6.73
##  5 Age 18 to 24 Poor        298         6.63
##  6 Age 25 to 29 Excellent  5743         7.11
##  7 Age 25 to 29 Very good  8454         6.98
##  8 Age 25 to 29 Good       6463         6.84
##  9 Age 25 to 29 Fair       1725         6.50
## 10 Age 25 to 29 Poor        318         6.45
## # ... with 55 more rows
…
## [1] "Less than $10,000" "Less than $15,000" "Less than $20,000"
## [4] "Less than $25,000" "Less than $35,000" "Less than $50,000"
## [7] "Less than $75,000" "$75,000 or more"

bmi_GroupByIncome_GroupByRace <-
  brfss2013 %>%
  filter(!is.na(X_race), !is.na(income2), !is.na(X_bmi5))  %>%
  group_by(income2, X_race) %>%
  summarise (count =n(), MeanBMI = mean(X_bmi5)/100)

## `summarise()` regrouping output by 'income2' (override with `.groups` argument)

bmi_GroupByIncome_GroupByRace

## # A tibble: 64 x 4
## # Groups:   income2 [8]
##    income2         X_race                                          count MeanBMI
##    <fct>           <fct>                                           <int>   <dbl>
##  1 Less than $10,~ White only, non-Hispanic                        12940    28.4
##  2 Less than $10,~ Black only, non-Hispanic                         3984    30.8
##  3 Less than $10,~ American Indian or Alaskan Native only, Non-Hi~   989    29.5
##  4 Less than $10,~ Asian only, non-Hispanic                          402    24.0
##  5 Less than $10,~ Native Hawaiian or other Pacific Islander only~   147    29.9
##  6 Less than $10,~ Other race only, non-Hispanic                     155    28.6
##  7 Less than $10,~ Multiracial, non-Hispanic                         762    28.6
##  8 Less than $10,~ Hispanic                                         4115    28.6
##  9 Less than $15,~ White only, non-Hispanic                        16428    28.5
## 10 Less than $15,~ Black only, non-Hispanic                         3329    30.8
## # ... with 54 more rows
…
